{
  "Avg": {
    "nprocs": 1.0,
    "nthreads": 1.0,
    "pss": 5405.0,
    "rchar": 4316125.0,
    "read_bytes": 96563200.0,
    "rss": 6236.0,
    "rx_bytes": 0.0,
    "rx_packets": 0.0,
    "swap": 0.0,
    "tx_bytes": 0.0,
    "tx_packets": 0.0,
    "vmem": 24832.0,
    "wchar": 0.0,
    "write_bytes": 0.0
  },
  "HW": {
    "cpu": {
      "CPUs": 4,
      "CoresPerSocket": 1,
      "ModelName": "Intel Xeon Processor (Skylake, IBRS)",
      "Sockets": 4,
      "ThreadsPerCore": 1
    },
    "mem": {
      "MemTotal": 7310232
    }
  },
  "Max": {
    "nprocs": 1,
    "nthreads": 1,
    "pss": 5405,
    "rchar": 172645,
    "read_bytes": 3862528,
    "rss": 6236,
    "rx_bytes": 0,
    "rx_packets": 0,
    "stime": 0,
    "swap": 0,
    "tx_bytes": 0,
    "tx_packets": 0,
    "utime": 0,
    "vmem": 24832,
    "wchar": 0,
    "write_bytes": 0,
    "wtime": 4
  },
  "prmon": {
    "Version": "3.0.1"
  }
}
