{
  "run_info": {
    "copies": 1,
    "threads_per_copy": 4,
    "events_per_thread": 1000,
    "extra_arguments": ""
  },
  "report": {
    "wl-scores": {
      "hlt": 63.8805
    },
    "wl-stats": {
      "throughput_score": {
        "avg": 63.8805,
        "median": 63.8805,
        "min": 63.8805,
        "max": 63.8805,
        "count": 1
      },
      "CPU_score": {
        "avg": 18.7633,
        "median": 18.7633,
        "min": 18.7633,
        "max": 18.7633,
        "count": 1
      },
      "GPU_stats": {
        "num_GPUs": 0,
        "speedup": -1,
        "gpu_num": null,
        "gpu_util": null,
        "gpu_mem": null
      }
    },
    "log": "ok"
  },
  "app": {}
}
