{"run_info": {"copies":1 , "threads_per_copy":1 , "events_per_thread" : 100, "n_tot_cores": 1 }, 
"report": {"wl-scores": {"sim": 1.2723} , 
"wl-stats": {"avg": 1.2723, "median": 1.2723, "min": 1.2723, "max": 1.2723, "count": 1},
"log": "ok" }, 
"app":{"version":"ci1.1","description":"ATLAS KV: GEANT4 simulation of 100 single muon events, based on Athena version v17.8.0.9",
    "cvmfs_checksum":"512aae44a881c0d4f9bc690488653241",
    "bmkdata_checksum":"9a62d4782b086a9c74ab6edd38dc0ee3",
    "bmk_checksum":"d441df8a450c4adeda688924bcd64e17",
    "containment": "docker"}
}
