{
  "Avg": {
    "nprocs": 2.0,
    "nthreads": 5.129,
    "pss": 2935217.0,
    "rchar": 41650423.0,
    "read_bytes": 131001606.0,
    "rss": 2941590.0,
    "rx_bytes": 30.075,
    "rx_packets": 0.429,
    "swap": 0.0,
    "tx_bytes": 0.0,
    "tx_packets": 0.0,
    "vmem": 3259394.0,
    "wchar": 1383312.0,
    "write_bytes": 1323390.0
  },
  "HW": {
    "cpu": {
      "CPUs": 160,
      "CoresPerSocket": 80,
      "Sockets": 2,
      "ThreadsPerCore": 1
    },
    "mem": {
      "MemTotal": 1069694336
    }
  },
  "Max": {
    "nprocs": 2,
    "nthreads": 6,
    "pss": 3281610,
    "rchar": 387765446,
    "read_bytes": 1219624960,
    "rss": 3288064,
    "rx_bytes": 280,
    "rx_packets": 4,
    "stime": 3,
    "swap": 0,
    "tx_bytes": 0,
    "tx_packets": 0,
    "utime": 1182,
    "vmem": 3625408,
    "wchar": 12878644,
    "write_bytes": 12320768,
    "wtime": 931
  },
  "prmon": {
    "Version": "3.0.1"
  }
}
